55.000000,25.000000,36.000000,42.000000
55.000000,25.000000,36.000000,42.000000
58.000000,25.000000,36.000000,42.000000
58.000000,25.000000,36.000000,42.000000
63.000000,26.000000,36.000000,42.000000
59.000000,25.000000,36.000000,42.000000
58.000000,25.000000,36.000000,42.000000
55.000000,25.000000,36.000000,42.000000
58.000000,25.000000,36.000000,42.000000
65.000000,25.000000,36.000000,42.000000
72.000000,22.000000,36.000000,42.000000
73.000000,22.000000,36.000000,42.000000
72.000000,19.000000,36.000000,42.000000
73.000000,19.000000,36.000000,42.000000
73.000000,19.000000,37.000000,44.000000
73.000000,19.000000,37.000000,44.000000
79.000000,18.000000,37.000000,44.000000
79.000000,18.000000,40.000000,44.000000
84.000000,12.000000,40.000000,44.000000
85.000000,13.000000,40.000000,44.000000
74.000000,13.000000,40.000000,44.000000
74.000000,9.000000,40.000000,44.000000
80.000000,7.000000,40.000000,44.000000
81.000000,6.000000,40.000000,44.000000
85.000000,7.000000,40.000000,44.000000
85.000000,2.000000,40.000000,44.000000
86.000000,3.000000,40.000000,44.000000
86.000000,3.000000,40.000000,44.000000
86.000000,3.000000,40.000000,44.000000
86.000000,3.000000,40.000000,44.000000
86.000000,3.000000,40.000000,44.000000
86.000000,3.000000,40.000000,44.000000
82.000000,3.000000,45.000000,47.000000
69.000000,1.000000,56.000000,52.000000
52.000000,2.000000,62.000000,57.000000
33.000000,2.000000,62.000000,57.000000
12.000000,1.000000,62.000000,57.000000
1.000000,13.000000,57.000000,55.000000
3.000000,25.000000,46.000000,52.000000
1.000000,30.000000,40.000000,51.000000
1.000000,37.000000,40.000000,51.000000
13.000000,36.000000,40.000000,51.000000
30.000000,35.000000,40.000000,51.000000
32.000000,33.000000,40.000000,51.000000
26.000000,32.000000,40.000000,51.000000
20.000000,32.000000,40.000000,51.000000
21.000000,35.000000,37.000000,45.000000
21.000000,35.000000,32.000000,42.000000
21.000000,35.000000,32.000000,42.000000
18.000000,31.000000,32.000000,42.000000
18.000000,31.000000,32.000000,42.000000
